Read NanoString RCC files — rcc • nanostringr
…
If path points to a zipped RCC file with multiple samples, the zip file is
uncompressed and a directory of RCC sample files is created with the same
name. Only file extensions ".RCC" or ".rcc" are allowed.

    Author

    Derek Chiu

    Examples

rcc_file <- system.file("extdata", "example.RCC", package = "nanostringr")
parse_counts(rcc_file)
#> # A tibble: 354 × 4
#>    Code.Class Name    Accession      `TAOC00241-N1`
#>    <chr>      <chr>   <chr>                   <int>
#>  1 Endogenous COL1A1  NM_000088.3             47179
#>  2 Endogenous ADAM12  NM_003474.4               158
#>  3 Endogenous BRCA2   NM_000059.3                32
#>  4 Endogenous GTF2H5  NM_207118.2               117
#>  5 Endogenous SLC7A11 NM_014331.3                33
#>  6 Endogenous HIF1A   NM_001530.2               691
#>  7 Endogenous DCN     NM_001920.3              2431
#>  8 Endogenous SVIL    NM_003174.2               335
#>  9 Endogenous HBB     NM_000518.4               292
#> 10 Endogenous MRPS27  NM_001286748.1             91
#> # ℹ 344 more rows
…
